simulation/qsim/Expreso.msim.vcd
$comment
	File created using the following command:
		vcd file Expreso.msim.vcd -direction
$end
$date
	Mon Apr 01 13:54:21 2019
$end
$version
	ModelSim Version 10.1d
$end
$timescale
	1ps
$end
$scope module Expreso_vlg_vec_tst $end
$var reg 1 ! Boton_Vaso $end
$var reg 1 " Confirmar $end
$var reg 1 # LLenado_Agua $end
$var reg 1 $ Llenado_Cafe $end
$var reg 1 % Reloj $end
$var reg 1 & Reset $end
$var reg 2 ' Usuario [1:0] $end
$var wire 1 ( Expreso_Tipo [6] $end
$var wire 1 ) Expreso_Tipo [5] $end
$var wire 1 * Expreso_Tipo [4] $end
$var wire 1 + Expreso_Tipo [3] $end
$var wire 1 , Expreso_Tipo [2] $end
$var wire 1 - Expreso_Tipo [1] $end
$var wire 1 . Expreso_Tipo [0] $end
$var wire 1 / Led_Expreso_Listo $end
$var wire 1 0 Led_Llenar_Almacenamiento $end
$var wire 1 1 look_state [14] $end
$var wire 1 2 look_state [13] $end
$var wire 1 3 look_state [12] $end
$var wire 1 4 look_state [11] $end
$var wire 1 5 look_state [10] $end
$var wire 1 6 look_state [9] $end
$var wire 1 7 look_state [8] $end
$var wire 1 8 look_state [7] $end
$var wire 1 9 look_state [6] $end
$var wire 1 : look_state [5] $end
$var wire 1 ; look_state [4] $end
$var wire 1 < look_state [3] $end
$var wire 1 = look_state [2] $end
$var wire 1 > look_state [1] $end
$var wire 1 ? look_state [0] $end
$var wire 1 @ relojito $end
$var wire 1 A Valvula_Agua $end
$var wire 1 B Valvula_Cafe $end
$var wire 1 C ver_acabadot $end
$var wire 1 D ver_conteo $end
$var wire 1 E sampler $end
$scope module i1 $end
$var wire 1 F gnd $end
$var wire 1 G vcc $end
$var wire 1 H unknown $end
$var tri1 1 I devclrn $end
$var tri1 1 J devpor $end
$var tri1 1 K devoe $end
$var wire 1 L relojito~output_o $end
$var wire 1 M Expreso_Tipo[0]~output_o $end
$var wire 1 N Expreso_Tipo[1]~output_o $end
$var wire 1 O Expreso_Tipo[2]~output_o $end
$var wire 1 P Expreso_Tipo[3]~output_o $end
$var wire 1 Q Expreso_Tipo[4]~output_o $end
$var wire 1 R Expreso_Tipo[5]~output_o $end
$var wire 1 S Expreso_Tipo[6]~output_o $end
$var wire 1 T look_state[0]~output_o $end
$var wire 1 U look_state[1]~output_o $end
$var wire 1 V look_state[2]~output_o $end
$var wire 1 W look_state[3]~output_o $end
$var wire 1 X look_state[4]~output_o $end
$var wire 1 Y look_state[5]~output_o $end
$var wire 1 Z look_state[6]~output_o $end
$var wire 1 [ look_state[7]~output_o $end
$var wire 1 \ look_state[8]~output_o $end
$var wire 1 ] look_state[9]~output_o $end
$var wire 1 ^ look_state[10]~output_o $end
$var wire 1 _ look_state[11]~output_o $end
$var wire 1 ` look_state[12]~output_o $end
$var wire 1 a look_state[13]~output_o $end
$var wire 1 b look_state[14]~output_o $end
$var wire 1 c ver_conteo~output_o $end
$var wire 1 d ver_acabadot~output_o $end
$var wire 1 e Valvula_Agua~output_o $end
$var wire 1 f Valvula_Cafe~output_o $end
$var wire 1 g Led_Expreso_Listo~output_o $end
$var wire 1 h Led_Llenar_Almacenamiento~output_o $end
$var wire 1 i Reloj~input_o $end
$var wire 1 j Usuario[0]~input_o $end
$var wire 1 k Usuario[1]~input_o $end
$var wire 1 l BLOQUE_P_Deco_7_Seg|Expreso_Tipo~0_combout $end
$var wire 1 m BLOQUE_P_Control|D~2_combout $end
$var wire 1 n BLOQUE_P_Deco_7_Seg|Expreso_Tipo~1_combout $end
$var wire 1 o BLOQUE_P_Deco_7_Seg|Expreso_Tipo~2_combout $end
$var wire 1 p Reloj~inputclkctrl_outclk $end
$var wire 1 q LLenado_Agua~input_o $end
$var wire 1 r Llenado_Cafe~input_o $end
$var wire 1 s BLOQUE_P_Control|D[6]~7_combout $end
$var wire 1 t BLOQUE_P_Contador_Cafe|FF1~0_combout $end
$var wire 1 u Reset~input_o $end
$var wire 1 v BLOQUE_P_Contador_Cafe|FF1~q $end
$var wire 1 w BLOQUE_P_Contador_Cafe|FF2~q $end
$var wire 1 x BLOQUE_P_Contador_Cafe|FF3~q $end
$var wire 1 y BLOQUE_P_Contador_Cafe|FF4~q $end
$var wire 1 z BLOQUE_P_Contador_Agua|D~1_combout $end
$var wire 1 { BLOQUE_P_Contador_Agua|FF5~q $end
$var wire 1 | BLOQUE_P_Contador_Agua|FF6~q $end
$var wire 1 } BLOQUE_P_Contador_Agua|FF7~q $end
$var wire 1 ~ BLOQUE_P_Contador_Agua|D~2_combout $end
$var wire 1 !! BLOQUE_P_Contador_Agua|FF8~q $end
$var wire 1 "! BLOQUE_P_Contador_Agua|FF9~q $end
$var wire 1 #! BLOQUE_P_Contador_Agua|D~3_combout $end
$var wire 1 $! BLOQUE_P_Contador_Agua|FF10~q $end
$var wire 1 %! BLOQUE_P_Contador_Agua|FF11~q $end
$var wire 1 &! BLOQUE_P_Contador_Agua|D~0_combout $end
$var wire 1 '! BLOQUE_P_Contador_Agua|FF12~q $end
$var wire 1 (! BLOQUE_P_Expreso_Dispo|Expreso_Disponible_Control~3_combout $end
$var wire 1 )! BLOQUE_P_Expreso_Dispo|Expreso_Disponible_Control~4_combout $end
$var wire 1 *! BLOQUE_P_Expreso_Dispo|Expreso_Disponible_Control~0_combout $end
$var wire 1 +! BLOQUE_P_Expreso_Dispo|Expreso_Disponible_Control~1_combout $end
$var wire 1 ,! BLOQUE_P_Expreso_Dispo|Expreso_Disponible_Control~2_combout $end
$var wire 1 -! Boton_Vaso~input_o $end
$var wire 1 .! Confirmar~input_o $end
$var wire 1 /! BLOQUE_P_Control|D[1]~6_combout $end
$var wire 1 0! BLOQUE_P_Control|FF2~q $end
$var wire 1 1! BLOQUE_P_Control|FF3~q $end
$var wire 1 2! BLOQUE_P_Control|FF4~q $end
$var wire 1 3! BLOQUE_P_Control|FF5~q $end
$var wire 1 4! BLOQUE_P_Control|FF6~q $end
$var wire 1 5! BLOQUE_P_Expreso_Dispo|Expreso_Disponible_Control~5_combout $end
$var wire 1 6! BLOQUE_P_Expreso_Dispo|Expreso_Disponible_Control~6_combout $end
$var wire 1 7! BLOQUE_P_Expreso_Dispo|Expreso_Disponible_Control~7_combout $end
$var wire 1 8! BLOQUE_P_Control|D[6]~8_combout $end
$var wire 1 9! BLOQUE_P_Control|D[6]~9_combout $end
$var wire 1 :! BLOQUE_P_Control|FF7~q $end
$var wire 1 ;! BLOQUE_P_Control|D[7]~10_combout $end
$var wire 1 <! BLOQUE_P_Control|FF8~q $end
$var wire 1 =! BLOQUE_P_Conteo_E1|FF1~0_combout $end
$var wire 1 >! BLOQUE_P_Control|D[8]~21_combout $end
$var wire 1 ?! BLOQUE_P_Control|FF9~q $end
$var wire 1 @! BLOQUE_P_Control|D~14_combout $end
$var wire 1 A! BLOQUE_P_Control|D[10]~15_combout $end
$var wire 1 B! BLOQUE_P_Control|FF11~q $end
$var wire 1 C! BLOQUE_P_Conteo_E1|FF1~q $end
$var wire 1 D! BLOQUE_P_Conteo_E1|FF2~q $end
$var wire 1 E! BLOQUE_P_Conteo_1|FF3~q $end
$var wire 1 F! BLOQUE_P_Conteo_1|FF4~q $end
$var wire 1 G! BLOQUE_P_Conteo_1|Conteo_1_Control~0_combout $end
$var wire 1 H! BLOQUE_P_Conteo_E4|FF1~0_combout $end
$var wire 1 I! BLOQUE_P_Conteo_E4|FF1~q $end
$var wire 1 J! BLOQUE_P_Conteo_E4|FF2~q $end
$var wire 1 K! BLOQUE_P_Conteo_E4|FF3~q $end
$var wire 1 L! BLOQUE_P_Control|D[11]~16_combout $end
$var wire 1 M! BLOQUE_P_Control|D[11]~17_combout $end
$var wire 1 N! BLOQUE_P_Control|FF12~q $end
$var wire 1 O! BLOQUE_P_Conteo_E2|FF1~0_combout $end
$var wire 1 P! BLOQUE_P_Conteo_E2|FF1~q $end
$var wire 1 Q! BLOQUE_P_Conteo_E2|FF2~q $end
$var wire 1 R! BLOQUE_P_Conteo_E2|FF3~q $end
$var wire 1 S! BLOQUE_P_Control|D[12]~18_combout $end
$var wire 1 T! BLOQUE_P_Control|D[12]~19_combout $end
$var wire 1 U! BLOQUE_P_Control|FF13~q $end
$var wire 1 V! BLOQUE_P_Conteo_E3|FF1~0_combout $end
$var wire 1 W! BLOQUE_P_Conteo_E3|FF1~q $end
$var wire 1 X! BLOQUE_P_Conteo_E3|FF2~q $end
$var wire 1 Y! BLOQUE_P_Conteo_E3|FF3~q $end
$var wire 1 Z! BLOQUE_P_Conteo_E3|FF4~q $end
$var wire 1 [! BLOQUE_P_Control|D[9]~11_combout $end
$var wire 1 \! BLOQUE_P_Control|D[9]~12_combout $end
$var wire 1 ]! BLOQUE_P_Control|D[9]~13_combout $end
$var wire 1 ^! BLOQUE_P_Control|FF10~q $end
$var wire 1 _! BLOQUE_P_Control|D[13]~3_combout $end
$var wire 1 `! BLOQUE_P_Control|FF14~q $end
$var wire 1 a! BLOQUE_P_Control|D[14]~20_combout $end
$var wire 1 b! BLOQUE_P_Control|FF15~q $end
$var wire 1 c! BLOQUE_P_Control|D[0]~4_combout $end
$var wire 1 d! BLOQUE_P_Control|D[0]~5_combout $end
$var wire 1 e! BLOQUE_P_Control|FF1~q $end
$var wire 1 f! BLOQUE_P_Conteo_E4|FF4~q $end
$var wire 1 g! BLOQUE_P_Conteo_2|Conteo_2_Control~0_combout $end
$var wire 1 h! BLOQUE_P_Expreso_Dispo|Expreso_Disponible_Control~8_combout $end
$var wire 1 i! BLOQUE_P_Conteo_4|D [3] $end
$var wire 1 j! BLOQUE_P_Conteo_4|D [2] $end
$var wire 1 k! BLOQUE_P_Conteo_4|D [1] $end
$var wire 1 l! BLOQUE_P_Conteo_4|D [0] $end
$var wire 1 m! BLOQUE_P_Contador_Cafe|D [11] $end
$var wire 1 n! BLOQUE_P_Contador_Cafe|D [10] $end
$var wire 1 o! BLOQUE_P_Contador_Cafe|D [9] $end
$var wire 1 p! BLOQUE_P_Contador_Cafe|D [8] $end
$var wire 1 q! BLOQUE_P_Contador_Cafe|D [7] $end
$var wire 1 r! BLOQUE_P_Contador_Cafe|D [6] $end
$var wire 1 s! BLOQUE_P_Contador_Cafe|D [5] $end
$var wire 1 t! BLOQUE_P_Contador_Cafe|D [4] $end
$var wire 1 u! BLOQUE_P_Contador_Cafe|D [3] $end
$var wire 1 v! BLOQUE_P_Contador_Cafe|D [2] $end
$var wire 1 w! BLOQUE_P_Contador_Cafe|D [1] $end
$var wire 1 x! BLOQUE_P_Contador_Cafe|D [0] $end
$var wire 1 y! BLOQUE_P_Conteo_E2|D [3] $end
$var wire 1 z! BLOQUE_P_Conteo_E2|D [2] $end
$var wire 1 {! BLOQUE_P_Conteo_E2|D [1] $end
$var wire 1 |! BLOQUE_P_Conteo_E2|D [0] $end
$var wire 1 }! BLOQUE_P_Conteo_2|D [3] $end
$var wire 1 ~! BLOQUE_P_Conteo_2|D [2] $end
$var wire 1 !" BLOQUE_P_Conteo_2|D [1] $end
$var wire 1 "" BLOQUE_P_Conteo_2|D [0] $end
$var wire 1 #" BLOQUE_P_Contador_Agua|D [11] $end
$var wire 1 $" BLOQUE_P_Contador_Agua|D [10] $end
$var wire 1 %" BLOQUE_P_Contador_Agua|D [9] $end
$var wire 1 &" BLOQUE_P_Contador_Agua|D [8] $end
$var wire 1 '" BLOQUE_P_Contador_Agua|D [7] $end
$var wire 1 (" BLOQUE_P_Contador_Agua|D [6] $end
$var wire 1 )" BLOQUE_P_Contador_Agua|D [5] $end
$var wire 1 *" BLOQUE_P_Contador_Agua|D [4] $end
$var wire 1 +" BLOQUE_P_Contador_Agua|D [3] $end
$var wire 1 ," BLOQUE_P_Contador_Agua|D [2] $end
$var wire 1 -" BLOQUE_P_Contador_Agua|D [1] $end
$var wire 1 ." BLOQUE_P_Contador_Agua|D [0] $end
$var wire 1 /" BLOQUE_P_Control|D [14] $end
$var wire 1 0" BLOQUE_P_Control|D [13] $end
$var wire 1 1" BLOQUE_P_Control|D [12] $end
$var wire 1 2" BLOQUE_P_Control|D [11] $end
$var wire 1 3" BLOQUE_P_Control|D [10] $end
$var wire 1 4" BLOQUE_P_Control|D [9] $end
$var wire 1 5" BLOQUE_P_Control|D [8] $end
$var wire 1 6" BLOQUE_P_Control|D [7] $end
$var wire 1 7" BLOQUE_P_Control|D [6] $end
$var wire 1 8" BLOQUE_P_Control|D [5] $end
$var wire 1 9" BLOQUE_P_Control|D [4] $end
$var wire 1 :" BLOQUE_P_Control|D [3] $end
$var wire 1 ;" BLOQUE_P_Control|D [2] $end
$var wire 1 <" BLOQUE_P_Control|D [1] $end
$var wire 1 =" BLOQUE_P_Control|D [0] $end
$var wire 1 >" BLOQUE_P_Conteo_E4|D [3] $end
$var wire 1 ?" BLOQUE_P_Conteo_E4|D [2] $end
$var wire 1 @" BLOQUE_P_Conteo_E4|D [1] $end
$var wire 1 A" BLOQUE_P_Conteo_E4|D [0] $end
$var wire 1 B" BLOQUE_P_Conteo_E3|D [3] $end
$var wire 1 C" BLOQUE_P_Conteo_E3|D [2] $end
$var wire 1 D" BLOQUE_P_Conteo_E3|D [1] $end
$var wire 1 E" BLOQUE_P_Conteo_E3|D [0] $end
$var wire 1 F" BLOQUE_P_Conteo_1|D [3] $end
$var wire 1 G" BLOQUE_P_Conteo_1|D [2] $end
$var wire 1 H" BLOQUE_P_Conteo_1|D [1] $end
$var wire 1 I" BLOQUE_P_Conteo_1|D [0] $end
$upscope $end
$upscope $end
$enddefinitions $end
#0
$dumpvars
0!
1"
0#
0$
0%
1&
b0 '
xf
xg
xh
0i
0j
0k
xl
xm
xn
xo
xp
0q
0r
xs
1t
1u
0v
0w
0x
0y
xz
0{
0|
0}
x~
0!!
0"!
x#!
0$!
0%!
x&!
0'!
x(!
x)!
x*!
0+!
x,!
0-!
1.!
x/!
00!
01!
02!
03!
04!
x5!
x6!
x7!
08!
x9!
0:!
x;!
0<!
1=!
x>!
0?!
x@!
xA!
0B!
0C!
x.
x-
x,
x+
x*
x)
x(
x/
x0
x?
x>
x=
x<
x;
x:
x9
x8
x7
x6
x5
x4
x3
x2
x1
x@
xA
xB
xC
xD
xE
0F
1G
xH
1I
1J
1K
xL
xM
xN
xO
xP
xQ
xR
xS
xT
xU
xV
xW
xX
xY
xZ
x[
x\
x]
x^
x_
x`
xa
xb
xc
xd
xe
0D!
0E!
0F!
xG!
1H!
0I!
0J!
0K!
xL!
xM!
0N!
1O!
0P!
0Q!
0R!
xS!
xT!
0U!
1V!
0W!
0X!
0Y!
0Z!
x[!
x\!
x]!
0^!
x_!
0`!
xa!
0b!
xc!
xd!
0e!
0f!
xg!
xh!
zl!
xk!
zj!
zi!
zx!
xw!
xv!
xu!
zt!
zs!
zr!
zq!
zp!
zo!
zn!
zm!
z|!
x{!
xz!
zy!
z""
x!"
z~!
z}!
z."
z-"
z,"
z+"
x*"
x)"
x("
x'"
x&"
x%"
x$"
x#"
z="
z<"
x;"
x:"
x9"
z8"
z7"
z6"
x5"
z4"
z3"
z2"
z1"
x0"
z/"
zA"
z@"
x?"
x>"
zE"
zD"
xC"
xB"
zI"
xH"
xG"
xF"
$end
#145
0p
#423
0B"
#426
0a!
#429
09"
0z!
#432
0{!
#438
0>"
#441
0?"
#442
0[!
#444
0k!
0C"
#447
0*!
0!"
#458
0(!
#559
0g!
#588
0S!
#614
1z
#640
0G!
#690
0;"
#691
0L!
#692
1&!
#712
06!
#719
0:"
#728
05!
#759
0s
#762
0;!
#771
1w!
#811
0F"
#823
0G"
#843
1_!
#850
0H"
#873
0,!
#874
1u!
#885
0>!
#974
0@!
0\!
#1007
0)!
#1047
1v!
#1118
1~
#1119
1)"
#1122
1("
#1150
0M!
#1159
00"
#1163
0T!
#1294
0]!
#1296
0A!
#1458
1&"
#1459
1'"
1#!
#1520
1*"
#1527
09!
#1576
1#"
#1579
05"
#1770
1%"
1$"
#1790
0h!
#2950
0`
03
#2979
0W
0<
#2983
0X
0;
#3023
0Y
0:
#3123
0_
04
#3308
0a
02
#3441
0V
0=
#3529
0Z
09
#3555
0m
#3604
0^
05
#3615
0]
06
#3676
0L
0@
#3701
0U
0>
#3725
1c!
#3750
0/!
#3778
0l
#3801
0\
07
#3812
0o
#3822
1n
#3961
1T
1?
#4018
17!
#4020
0d!
#4102
0[
08
#4254
0b
01
#4333
0f
0B
#4353
0e
0A
#4385
0h
00
#4828
0c
0D
#5136
0g
0/
#5835
0Q
0*
#6279
0P
0+
#6331
0S
0(
#6341
0O
0,
#6400
0N
0-
#6826
0M
0.
#6940
0d
0C
#7001
0R
0)
#10000
1%
0&
0E
#10775
1i
#10896
0u
#10938
1p
#12607
1v
1w
1x
1y
1{
1|
1}
1!!
1"!
1$!
1%!
1'!
#12960
1*!
#12976
0#"
0%"
0)"
0*"
0u!
0t
#12990
1h!
#13074
0#!
#13076
0&!
#13099
0z
#13101
1(!
#13115
1u!
#13174
1)!
#13196
0~
#13244
15!
#13375
1#"
#13405
1+!
#13414
1%"
#13417
1>!
#13426
1)"
#13547
16!
#13849
1,!
#14028
1*"
#14594
1L
1@
#15446
0|
0}
0!!
0"!
0$!
0%!
#15469
0v
0w
0x
0y
0{
0'!
#15815
0$"
0%"
0&"
0'"
0("
0)"
#15822
1t
#15838
0#"
0*"
0*!
0+!
#15927
0(!
#16083
1z
#16138
1&!
#16148
06!
#16197
05!
#16331
0>!
#16342
0,!
#16453
0)!
#16587
1~
#16588
1)"
#16591
1("
#16927
1&"
#16928
1'"
1#!
#16989
1*"
#17045
1#"
#17239
1%"
1$"
#17259
0h!
#18057
1d
1C
#20000
0%
1&
1E
#20735
1u
#20936
0i
#21081
0p
#22409
0d
0C
#24612
0L
0@
#30000
1%
0E
#30775
1i
#30938
1p
#32607
1v
1w
1x
1y
1{
1|
1}
1!!
1"!
1$!
1%!
1'!
#32960
1*!
#32976
0#"
0%"
0)"
0*"
0u!
0t
#32990
1h!
#33074
0#!
#33076
0&!
#33099
0z
#33101
1(!
#33115
1u!
#33174
1)!
#33196
0~
#33244
15!
#33375
1#"
#33405
1+!
#33414
1%"
#33417
1>!
#33426
1)"
#33547
16!
#33849
1,!
#34028
1*"
#34594
1L
1@
#38057
1d
1C
#40000
0"
0%
1E
#40916
0.!
#40936
0i
#41081
0p
#44612
0L
0@
#44924
0c!
#44955
1/!
#45256
1d!
#50000
1"
1%
0E
#50755
1.!
#50775
1i
#50938
1p
#52604
10!
1e!
#52607
0v
#52960
1t
#53368
0w!
#53434
0+!
#53884
0,!
#54333
1;"
#54505
0/!
#54594
1L
1@
#56278
1U
1>
#56486
0T
0?
#60000
0%
1E
#60936
0i
#61081
0p
#64612
0L
0@
#70000
1%
0E
#70775
1i
#70938
1p
#72604
00!
11!
#72607
1v
0w
#72976
0t
#73226
1:"
#73294
0;"
#74594
1L
1@
#76048
1V
1=
#76305
0U
0>
#80000
0%
1E
#80936
0i
#81081
0p
#84612
0L
0@
#90000
1%
0E
#90775
1i
#90938
1p
#92604
01!
12!
#92607
0v
#92960
1t
#92973
19"
#93183
05!
#93323
0:"
#93378
1w!
#93502
06!
#93659
0v!
#94594
1L
1@
#95585
1W
1<
#96045
0V
0=
#100000
1!
0%
1E
#100735
1-!
#100936
0i
#101081
0p
#104408
09"
#104421
1:"
#104612
0L
0@
#110000
1%
0E
#110775
1i
#110938
1p
#112607
1v
1w
0x
#112976
0t
#114594
1L
1@
#120000
0!
0%
1E
#120896
0-!
#120936
0i
#121081
0p
#124612
0L
0@
#124837
0:"
#124844
19"
#130000
1%
0E
#130775
1i
#130938
1p
#132604
02!
13!
#132607
0v
#132960
1t
#133033
09"
#133368
0w!
#134594
1L
1@
#135576
1X
1;
#135583
0W
0<
#140000
0%
1E
#140936
0i
#141081
0p
#144612
0L
0@
#150000
1%
0E
#150775
1i
#150938
1p
#152604
03!
#152607
1v
0w
14!
#152976
0u!
0t
#153409
1u!
#154112
15"
#154594
1L
1@
#155587
0X
0;
#155598
1Y
1:
#160000
0%
1E
#160936
0i
#161081
0p
#164612
0L
0@
#170000
1%
0E
#170775
1i
#170938
1p
#172607
0v
04!
#172960
1t
#172972
1?!
#173378
1w!
#173499
0u!
#173654
1v!
#173871
1\!
#174176
1]!
#174186
05"
#174594
1L
1@
#175630
0Y
0:
#176638
1\
17
#180000
0%
1E
#180936
0i
#181081
0p
#184612
0L
0@
#190000
1%
0E
#190775
1i
#190938
1p
#192603
1^!
#192607
1v
1w
1x
0y
#192960
1u!
#192972
0?!
#192976
0*!
0t
#193132
0_!
#193160
0u!
#193244
15!
#193483
10"
#193946
0\!
#194594
1L
1@
#196247
1]
16
#196637
1f
1B
#196654
1e
1A
#196773
0\
07
#200000
0%
1E
#200936
0i
#201081
0p
#204612
0L
0@
#210000
1%
0E
#210775
1i
#210938
1p
#212603
1W!
#212604
1`!
#212607
0v
#212960
1t
#212972
0V!
#212977
1k!
#213368
0w!
#214594
1L
1@
#215944
1a
12
#217578
1g
1/
#220000
0%
1E
#220936
0i
#221081
0p
#224612
0L
0@
#230000
1%
0E
#230775
1i
#230938
1p
#232603
0W!
1X!
#232607
1v
0w
#232956
1V!
#232976
0t
#234594
1L
1@
#240000
0%
1E
#240936
0i
#241081
0p
#244612
0L
0@
#250000
1%
0E
#250775
1i
#250938
1p
#252603
1W!
#252607
0v
#252960
1t
#252967
0k!
#252972
0V!
#252975
1[!
#252977
1C"
#253183
05!
#253378
1w!
#253659
0v!
#254594
1L
1@
#260000
0%
1E
#260936
0i
#261081
0p
#264612
0L
0@
#270000
1%
0E
#270775
1i
#270938
1p
#272603
0W!
0X!
1Y!
#272607
1v
1w
0x
#272956
1V!
#272976
0t
#273045
0[!
#273231
0]!
#273647
1]!
#274594
1L
1@
#280000
0%
1E
#280936
0i
#281081
0p
#284612
0L
0@
#290000
1%
0E
#290775
1i
#290938
1p
#292603
1W!
#292607
0v
#292960
1t
#292972
0V!
#292977
1k!
#293368
0w!
#294594
1L
1@
#300000
0%
1E
#300936
0i
#301081
0p
#304612
0L
0@
#310000
1%
0E
#310775
1i
#310938
1p
#312603
0W!
1X!
#312607
1v
0w
#312956
1V!
#312960
1u!
#312976
0t
#313427
0u!
#314594
1L
1@
#320000
0%
1E
#320936
0i
#321081
0p
#324612
0L
0@
#330000
1%
0E
#330775
1i
#330938
1p
#332603
1W!
#332607
0v
#332960
1t
#332967
0k!
0C"
#332972
0V!
#332975
1[!
#333201
1B"
#333221
1z
#333378
1w!
#333481
1u!
#333546
0]!
#333654
1v!
#334139
0*"
#334594
1L
1@
#340000
0%
1E
#340936
0i
#341081
0p
#344612
0L
0@
#350000
1%
0E
#350775
1i
#350938
1p
#352603
0W!
0X!
0Y!
1Z!
0^!
#352607
1v
1w
1x
1y
0{
#352956
1V!
#352960
1*"
1*!
#352976
0u!
0t
#353099
0z
#353115
1u!
#353206
1_!
#353244
15!
#353303
0[!
#353405
1+!
#353487
0)"
#353522
00"
#353631
1)"
#353849
1,!
#354040
0*"
#354594
1L
1@
#356218
0]
06
#356696
0f
0B
#356716
0e
0A
#360000
0%
1E
#360936
0i
#361081
0p
#364612
0L
0@
#370000
1%
0E
#370775
1i
#370938
1p
#372604
0`!
#372607
0v
#372960
1t
#373368
0w!
#373434
0+!
#373884
0,!
#374594
1L
1@
#375912
0a
02
#377740
0g
0/
#380000
0%
1E
#380936
0i
#381081
0p
#384612
0L
0@
#390000
1%
0E
#390775
1i
#390938
1p
#392607
1v
0w
#392976
0t
#394594
1L
1@
#400000
0%
1E
#400936
0i
#401081
0p
#404612
0L
0@
#410000
1%
0E
#410775
1i
#410938
1p
#412607
0v
#412960
1t
#413378
1w!
#413659
0v!
#414594
1L
1@
#420000
0%
1E
#420936
0i
#421081
0p
#424612
0L
0@
#430000
1%
0E
#430775
1i
#430938
1p
#432607
1v
1w
0x
#432976
0t
#434594
1L
1@
#440000
0%
1E
#440936
0i
#441081
0p
#444612
0L
0@
#450000
1%
0E
#450775
1i
#450938
1p
#452607
0v
#452960
1t
#453368
0w!
#454594
1L
1@
#460000
0%
1E
#460936
0i
#461081
0p
#464612
0L
0@
#470000
1%
0E
#470775
1i
#470938
1p
#472607
1v
0w
#472976
0u!
0t
#473409
1u!
#474594
1L
1@
#480000
0%
1E
#480936
0i
#481081
0p
#484612
0L
0@
#490000
1%
0E
#490775
1i
#490938
1p
#492607
0v
#492960
1t
#493183
05!
#493378
1w!
#493499
0u!
#493654
1v!
#494594
1L
1@
#500000
0%
1E
#500936
0i
#501081
0p
#504612
0L
0@
#510000
1%
0E
#510775
1i
#510938
1p
#512607
1v
1w
1x
0y
#512960
1u!
#512976
0*!
0t
#513107
15!
#513160
0u!
#513180
0(!
#514594
1L
1@
#520000
0%
1E
#520936
0i
#521081
0p
#524612
0L
0@
#530000
1%
0E
#530775
1i
#530938
1p
#532607
0v
#532960
1t
#533368
0w!
#534594
1L
1@
#540000
0%
1E
#540936
0i
#541081
0p
#544612
0L
0@
#550000
1%
0E
#550775
1i
#550938
1p
#552607
1v
0w
#552976
0t
#554594
1L
1@
#560000
0%
1E
#560936
0i
#561081
0p
#564612
0L
0@
#570000
1%
0E
#570775
1i
#570938
1p
#572607
0v
#572960
1t
#573378
1w!
#573659
0v!
#574594
1L
1@
#580000
0%
1E
#580936
0i
#581081
0p
#584612
0L
0@
#590000
1%
0E
#590775
1i
#590938
1p
#592607
1v
1w
0x
#592976
0t
#594594
1L
1@
#600000
0%
1E
#600936
0i
#601081
0p
#604612
0L
0@
#610000
1%
0E
#610775
1i
#610938
1p
#612607
0v
#612960
1t
#613368
0w!
#614594
1L
1@
#620000
0%
1E
#620936
0i
#621081
0p
#624612
0L
0@
#630000
1%
0E
#630775
1i
#630938
1p
#632607
1v
0w
#632960
1u!
#632976
0t
#633427
0u!
#634594
1L
1@
#640000
0%
1E
#640936
0i
#641081
0p
#644612
0L
0@
#650000
1%
0E
#650775
1i
#650938
1p
#652607
0v
#652960
1t
#653183
05!
#653221
1z
#653378
1w!
#653481
1u!
#653654
1v!
#653716
0)"
#654127
1*"
#654594
1L
1@
#660000
0%
1E
#660936
0i
#661081
0p
#664612
0L
0@
#670000
1%
0E
#670775
1i
#670938
1p
#672607
1v
1w
1x
1y
1{
0|
#672960
1)"
1*!
#672976
0*"
0u!
0t
#673099
0z
#673101
1(!
#673115
1u!
#673244
15!
#673405
1+!
#673415
0)"
#673492
0>!
#673547
16!
#673849
1,!
#674028
1*"
#674594
1L
1@
#680000
0%
1E
#680936
0i
#681081
0p
#684612
0L
0@
#690000
1%
0E
#690775
1i
#690938
1p
#692607
0v
#692960
1t
#693368
0w!
#693434
0+!
#693884
0,!
#694594
1L
1@
#700000
0%
1E
#700936
0i
#701081
0p
#704612
0L
0@
#710000
1%
0E
#710775
1i
#710938
1p
#712607
1v
0w
#712976
0t
#714594
1L
1@
#720000
0%
1E
#720936
0i
#721081
0p
#724612
0L
0@
#730000
1%
0E
#730775
1i
#730938
1p
#732607
0v
#732960
1t
#733183
05!
#733378
1w!
#733502
06!
#733659
0v!
#734594
1L
1@
#740000
0%
1E
#740936
0i
#741081
0p
#744612
0L
0@
#750000
1%
0E
#750775
1i
#750938
1p
#752607
1v
1w
0x
#752976
0t
#754594
1L
1@
#760000
0%
1E
#760936
0i
#761081
0p
#764612
0L
0@
#770000
1%
0E
#770775
1i
#770938
1p
#772607
0v
#772960
1t
#773368
0w!
#774594
1L
1@
#780000
0%
1E
#780936
0i
#781081
0p
#784612
0L
0@
#790000
1%
0E
#790775
1i
#790938
1p
#792607
1v
0w
#792976
0u!
0t
#793409
1u!
#794594
1L
1@
#800000
0%
1E
#800936
0i
#801081
0p
#804612
0L
0@
#810000
1%
0E
#810775
1i
#810938
1p
#812607
0v
#812960
1t
#813378
1w!
#813499
0u!
#813654
1v!
#814594
1L
1@
#820000
0%
1E
#820936
0i
#821081
0p
#824612
0L
0@
#830000
1%
0E
#830775
1i
#830938
1p
#832607
1v
1w
1x
0y
#832960
1u!
#832976
0*!
0t
#833160
0u!
#833244
15!
#834594
1L
1@
#840000
0%
1E
#840936
0i
#841081
0p
#844612
0L
0@
#850000
1%
0E
#850775
1i
#850938
1p
#852607
0v
#852960
1t
#853368
0w!
#854594
1L
1@
#860000
0%
1E
#860936
0i
#861081
0p
#864612
0L
0@
#870000
1%
0E
#870775
1i
#870938
1p
#872607
1v
0w
#872976
0t
#874594
1L
1@
#880000
0%
1E
#880936
0i
#881081
0p
#884612
0L
0@
#890000
1%
0E
#890775
1i
#890938
1p
#892607
0v
#892960
1t
#893183
05!
#893378
1w!
#893659
0v!
#894594
1L
1@
#900000
0%
1E
#900936
0i
#901081
0p
#904612
0L
0@
#910000
1%
0E
#910775
1i
#910938
1p
#912607
1v
1w
0x
#912976
0t
#914594
1L
1@
#920000
0%
1E
#920936
0i
#921081
0p
#924612
0L
0@
#930000
1%
0E
#930775
1i
#930938
1p
#932607
0v
#932960
1t
#933368
0w!
#934594
1L
1@
#940000
0%
1E
#940936
0i
#941081
0p
#944612
0L
0@
#950000
1%
0E
#950775
1i
#950938
1p
#952607
1v
0w
#952960
1u!
#952976
0t
#953427
0u!
#954594
1L
1@
#960000
0%
1E
#960936
0i
#961081
0p
#964612
0L
0@
#970000
1%
0E
#970775
1i
#970938
1p
#972607
0v
#972960
1t
#973221
1z
#973378
1w!
#973481
1u!
#973654
1v!
#974139
0*"
#974594
1L
1@
#980000
0%
1E
#980936
0i
#981081
0p
#984612
0L
0@
#990000
1%
0E
#990775
1i
#990938
1p
#992607
1v
1w
1x
1y
0{
#992960
1*"
1*!
#992976
0u!
0t
#993099
0z
#993115
1u!
#993244
15!
#993405
1+!
#993460
1~
#993474
0("
#993498
1)"
#993617
0~
